 - Mon, 27 Mar 2023 22:36:18 loader.py[line:40] INFO create_model. model_name = cnn, output_dim = 10
 - Mon, 27 Mar 2023 22:36:18 loader.py[line:52] INFO CNN + fashion-mnist
 - Mon, 27 Mar 2023 22:36:18 grpc_comm_manager.py[line:44] INFO /home/shulinp2/cs-525-research
server started. Listening on port 50007
 - Mon, 27 Mar 2023 22:47:05 grpc_server.py[line:29] INFO client_7 got something from client_0 from ip address 172.22.151.37
 - Mon, 27 Mar 2023 22:47:06 FedProxClientManager.py[line:31] INFO handle_message_receive_model_from_server.
 - Mon, 27 Mar 2023 22:47:06 FedProxClientManager.py[line:61] INFO #######training########### round_id = 1
 - Mon, 27 Mar 2023 22:47:07 my_model_trainer_classification.py[line:65] INFO Client Index = 6	Epoch: 0	Loss: 4.121950
 - Mon, 27 Mar 2023 22:47:07 my_model_trainer_classification.py[line:65] INFO Client Index = 6	Epoch: 1	Loss: 2.146679
 - Mon, 27 Mar 2023 22:47:08 my_model_trainer_classification.py[line:65] INFO Client Index = 6	Epoch: 2	Loss: 1.452975
########### client training time for epoch 3: 2.1080846786499023
########### client 230 delay 0.0s
############# client 230   training time: 2.235091209411621
json string size = 27819061
 - Mon, 27 Mar 2023 22:47:09 grpc_comm_manager.py[line:67] INFO sending message to 172.22.151.37:50000
 - Mon, 27 Mar 2023 22:47:23 grpc_server.py[line:29] INFO client_7 got something from client_0 from ip address 172.22.151.37
 - Mon, 27 Mar 2023 22:47:23 FedProxClientManager.py[line:31] INFO handle_message_receive_model_from_server.
 - Mon, 27 Mar 2023 22:47:23 FedProxClientManager.py[line:61] INFO #######training########### round_id = 2
 - Mon, 27 Mar 2023 22:47:24 my_model_trainer_classification.py[line:65] INFO Client Index = 6	Epoch: 0	Loss: 0.238115
 - Mon, 27 Mar 2023 22:47:25 my_model_trainer_classification.py[line:65] INFO Client Index = 6	Epoch: 1	Loss: 0.119089
 - Mon, 27 Mar 2023 22:47:26 my_model_trainer_classification.py[line:65] INFO Client Index = 6	Epoch: 2	Loss: 0.080705
########### client training time for epoch 3: 2.686415195465088
########### client 176 delay 0.0s
############# client 176   training time: 2.783515453338623
json string size = 28308546
 - Mon, 27 Mar 2023 22:47:27 grpc_comm_manager.py[line:67] INFO sending message to 172.22.151.37:50000
 - Mon, 27 Mar 2023 22:47:40 grpc_server.py[line:29] INFO client_7 got something from client_0 from ip address 172.22.151.37
 - Mon, 27 Mar 2023 22:47:40 FedProxClientManager.py[line:31] INFO handle_message_receive_model_from_server.
 - Mon, 27 Mar 2023 22:47:40 FedProxClientManager.py[line:61] INFO #######training########### round_id = 3
 - Mon, 27 Mar 2023 22:47:41 my_model_trainer_classification.py[line:65] INFO Client Index = 6	Epoch: 0	Loss: 0.638704
 - Mon, 27 Mar 2023 22:47:41 my_model_trainer_classification.py[line:65] INFO Client Index = 6	Epoch: 1	Loss: 0.354207
 - Mon, 27 Mar 2023 22:47:42 my_model_trainer_classification.py[line:65] INFO Client Index = 6	Epoch: 2	Loss: 0.241012
########### client training time for epoch 3: 1.9585626125335693
########### client 7 delay 0.0s
############# client 7   training time: 2.057213068008423
json string size = 28216417
 - Mon, 27 Mar 2023 22:47:43 grpc_comm_manager.py[line:67] INFO sending message to 172.22.151.37:50000
 - Mon, 27 Mar 2023 22:47:56 grpc_server.py[line:29] INFO client_7 got something from client_0 from ip address 172.22.151.37
 - Mon, 27 Mar 2023 22:47:57 FedProxClientManager.py[line:31] INFO handle_message_receive_model_from_server.
 - Mon, 27 Mar 2023 22:47:57 FedProxClientManager.py[line:61] INFO #######training########### round_id = 4
 - Mon, 27 Mar 2023 22:47:57 my_model_trainer_classification.py[line:65] INFO Client Index = 6	Epoch: 0	Loss: 1.068278
 - Mon, 27 Mar 2023 22:47:58 my_model_trainer_classification.py[line:65] INFO Client Index = 6	Epoch: 1	Loss: 0.611871
 - Mon, 27 Mar 2023 22:47:59 my_model_trainer_classification.py[line:65] INFO Client Index = 6	Epoch: 2	Loss: 0.450779
########### client training time for epoch 3: 1.8957016468048096
########### client 201 delay 0.0s
############# client 201   training time: 1.9922723770141602
json string size = 28370345
 - Mon, 27 Mar 2023 22:48:00 grpc_comm_manager.py[line:67] INFO sending message to 172.22.151.37:50000
 - Mon, 27 Mar 2023 22:48:13 grpc_server.py[line:29] INFO client_7 got something from client_0 from ip address 172.22.151.37
 - Mon, 27 Mar 2023 22:48:14 FedProxClientManager.py[line:31] INFO handle_message_receive_model_from_server.
 - Mon, 27 Mar 2023 22:48:14 FedProxClientManager.py[line:61] INFO #######training########### round_id = 5
 - Mon, 27 Mar 2023 22:48:14 my_model_trainer_classification.py[line:65] INFO Client Index = 6	Epoch: 0	Loss: 0.100732
 - Mon, 27 Mar 2023 22:48:15 my_model_trainer_classification.py[line:65] INFO Client Index = 6	Epoch: 1	Loss: 0.051934
 - Mon, 27 Mar 2023 22:48:16 my_model_trainer_classification.py[line:65] INFO Client Index = 6	Epoch: 2	Loss: 0.034624
########### client training time for epoch 3: 2.524167060852051
########### client 147 delay 0.0s
############# client 147   training time: 2.6546778678894043
json string size = 28155107
 - Mon, 27 Mar 2023 22:48:17 grpc_comm_manager.py[line:67] INFO sending message to 172.22.151.37:50000
 - Mon, 27 Mar 2023 22:48:30 grpc_server.py[line:29] INFO client_7 got something from client_0 from ip address 172.22.151.37
 - Mon, 27 Mar 2023 22:48:30 FedProxClientManager.py[line:31] INFO handle_message_receive_model_from_server.
 - Mon, 27 Mar 2023 22:48:30 FedProxClientManager.py[line:61] INFO #######training########### round_id = 6
 - Mon, 27 Mar 2023 22:48:31 my_model_trainer_classification.py[line:65] INFO Client Index = 6	Epoch: 0	Loss: 0.423936
 - Mon, 27 Mar 2023 22:48:32 my_model_trainer_classification.py[line:65] INFO Client Index = 6	Epoch: 1	Loss: 0.211969
 - Mon, 27 Mar 2023 22:48:33 my_model_trainer_classification.py[line:65] INFO Client Index = 6	Epoch: 2	Loss: 0.141312
########### client training time for epoch 3: 2.502598524093628
########### client 234 delay 0.0s
############# client 234   training time: 2.6021969318389893
json string size = 28194772
 - Mon, 27 Mar 2023 22:48:34 grpc_comm_manager.py[line:67] INFO sending message to 172.22.151.37:50000
 - Mon, 27 Mar 2023 22:48:47 grpc_server.py[line:29] INFO client_7 got something from client_0 from ip address 172.22.151.37
 - Mon, 27 Mar 2023 22:48:47 FedProxClientManager.py[line:31] INFO handle_message_receive_model_from_server.
 - Mon, 27 Mar 2023 22:48:47 FedProxClientManager.py[line:61] INFO #######training########### round_id = 7
 - Mon, 27 Mar 2023 22:48:48 my_model_trainer_classification.py[line:65] INFO Client Index = 6	Epoch: 0	Loss: 0.557702
 - Mon, 27 Mar 2023 22:48:48 my_model_trainer_classification.py[line:65] INFO Client Index = 6	Epoch: 1	Loss: 0.343421
 - Mon, 27 Mar 2023 22:48:49 my_model_trainer_classification.py[line:65] INFO Client Index = 6	Epoch: 2	Loss: 0.246401
########### client training time for epoch 3: 1.8244426250457764
########### client 103 delay 0.0s
############# client 103   training time: 1.9210093021392822
json string size = 28244961
 - Mon, 27 Mar 2023 22:48:50 grpc_comm_manager.py[line:67] INFO sending message to 172.22.151.37:50000
 - Mon, 27 Mar 2023 22:49:03 grpc_server.py[line:29] INFO client_7 got something from client_0 from ip address 172.22.151.37
 - Mon, 27 Mar 2023 22:49:04 FedProxClientManager.py[line:31] INFO handle_message_receive_model_from_server.
 - Mon, 27 Mar 2023 22:49:04 FedProxClientManager.py[line:61] INFO #######training########### round_id = 8
 - Mon, 27 Mar 2023 22:49:05 my_model_trainer_classification.py[line:65] INFO Client Index = 6	Epoch: 0	Loss: 0.330134
 - Mon, 27 Mar 2023 22:49:05 my_model_trainer_classification.py[line:65] INFO Client Index = 6	Epoch: 1	Loss: 0.165068
 - Mon, 27 Mar 2023 22:49:06 my_model_trainer_classification.py[line:65] INFO Client Index = 6	Epoch: 2	Loss: 0.110045
########### client training time for epoch 3: 2.354996919631958
########### client 204 delay 0.0s
############# client 204   training time: 2.451111316680908
json string size = 28220755
 - Mon, 27 Mar 2023 22:49:07 grpc_comm_manager.py[line:67] INFO sending message to 172.22.151.37:50000
 - Mon, 27 Mar 2023 22:49:20 grpc_server.py[line:29] INFO client_7 got something from client_0 from ip address 172.22.151.37
 - Mon, 27 Mar 2023 22:49:20 FedProxClientManager.py[line:31] INFO handle_message_receive_model_from_server.
 - Mon, 27 Mar 2023 22:49:21 FedProxClientManager.py[line:61] INFO #######training########### round_id = 9
 - Mon, 27 Mar 2023 22:49:21 my_model_trainer_classification.py[line:65] INFO Client Index = 6	Epoch: 0	Loss: 0.224999
 - Mon, 27 Mar 2023 22:49:22 my_model_trainer_classification.py[line:65] INFO Client Index = 6	Epoch: 1	Loss: 0.115836
 - Mon, 27 Mar 2023 22:49:23 my_model_trainer_classification.py[line:65] INFO Client Index = 6	Epoch: 2	Loss: 0.113763
########### client training time for epoch 3: 2.044029474258423
########### client 30 delay 0.0s
############# client 30   training time: 2.141127109527588
json string size = 28233314
 - Mon, 27 Mar 2023 22:49:24 grpc_comm_manager.py[line:67] INFO sending message to 172.22.151.37:50000
 - Mon, 27 Mar 2023 22:49:37 grpc_server.py[line:29] INFO client_7 got something from client_0 from ip address 172.22.151.37
 - Mon, 27 Mar 2023 22:49:37 FedProxClientManager.py[line:31] INFO handle_message_receive_model_from_server.
 - Mon, 27 Mar 2023 22:49:37 FedProxClientManager.py[line:61] INFO #######training########### round_id = 10
 - Mon, 27 Mar 2023 22:49:38 my_model_trainer_classification.py[line:65] INFO Client Index = 6	Epoch: 0	Loss: 0.525290
 - Mon, 27 Mar 2023 22:49:39 my_model_trainer_classification.py[line:65] INFO Client Index = 6	Epoch: 1	Loss: 0.262700
 - Mon, 27 Mar 2023 22:49:40 my_model_trainer_classification.py[line:65] INFO Client Index = 6	Epoch: 2	Loss: 0.177199
########### client training time for epoch 3: 2.6020565032958984
########### client 44 delay 0.0s
############# client 44   training time: 2.701646327972412
json string size = 28127839
 - Mon, 27 Mar 2023 22:49:41 grpc_comm_manager.py[line:67] INFO sending message to 172.22.151.37:50000
