 - Tue, 28 Mar 2023 00:54:22 loader.py[line:40] INFO create_model. model_name = cnn, output_dim = 10
 - Tue, 28 Mar 2023 00:54:22 loader.py[line:44] INFO CNN + Cifar10
 - Tue, 28 Mar 2023 00:54:22 grpc_comm_manager.py[line:44] INFO /home/shulinp2/cs-525-research
server started. Listening on port 50008
 - Tue, 28 Mar 2023 00:55:01 grpc_server.py[line:29] INFO client_8 got something from client_0 from ip address 172.22.151.37
 - Tue, 28 Mar 2023 00:55:02 FedProxClientManager.py[line:31] INFO handle_message_receive_model_from_server.
 - Tue, 28 Mar 2023 00:55:02 FedProxClientManager.py[line:61] INFO #######training########### round_id = 1
 - Tue, 28 Mar 2023 00:55:03 my_model_trainer_classification.py[line:65] INFO Client Index = 7	Epoch: 0	Loss: 8.877867
 - Tue, 28 Mar 2023 00:55:04 my_model_trainer_classification.py[line:65] INFO Client Index = 7	Epoch: 1	Loss: 4.807664
 - Tue, 28 Mar 2023 00:55:04 my_model_trainer_classification.py[line:65] INFO Client Index = 7	Epoch: 2	Loss: 3.436214
########### client training time for epoch 3: 2.2422478199005127
########### client 206 delay 0.0s
############# client 206   training time: 2.4378833770751953
json string size = 49686117
 - Tue, 28 Mar 2023 00:55:06 grpc_comm_manager.py[line:67] INFO sending message to 172.22.151.37:50000
 - Tue, 28 Mar 2023 00:55:33 grpc_server.py[line:29] INFO client_8 got something from client_0 from ip address 172.22.151.37
 - Tue, 28 Mar 2023 00:55:33 FedProxClientManager.py[line:31] INFO handle_message_receive_model_from_server.
 - Tue, 28 Mar 2023 00:55:34 FedProxClientManager.py[line:61] INFO #######training########### round_id = 2
 - Tue, 28 Mar 2023 00:55:34 my_model_trainer_classification.py[line:65] INFO Client Index = 7	Epoch: 0	Loss: 1.488015
 - Tue, 28 Mar 2023 00:55:35 my_model_trainer_classification.py[line:65] INFO Client Index = 7	Epoch: 1	Loss: 1.076143
 - Tue, 28 Mar 2023 00:55:36 my_model_trainer_classification.py[line:65] INFO Client Index = 7	Epoch: 2	Loss: 0.966565
########### client training time for epoch 3: 2.156632661819458
########### client 73 delay 0.0s
############# client 73   training time: 2.3413913249969482
json string size = 51113693
 - Tue, 28 Mar 2023 00:55:38 grpc_comm_manager.py[line:67] INFO sending message to 172.22.151.37:50000
 - Tue, 28 Mar 2023 00:56:04 grpc_server.py[line:29] INFO client_8 got something from client_0 from ip address 172.22.151.37
 - Tue, 28 Mar 2023 00:56:05 FedProxClientManager.py[line:31] INFO handle_message_receive_model_from_server.
 - Tue, 28 Mar 2023 00:56:05 FedProxClientManager.py[line:61] INFO #######training########### round_id = 3
 - Tue, 28 Mar 2023 00:56:06 my_model_trainer_classification.py[line:65] INFO Client Index = 7	Epoch: 0	Loss: 1.505713
 - Tue, 28 Mar 2023 00:56:07 my_model_trainer_classification.py[line:65] INFO Client Index = 7	Epoch: 1	Loss: 1.018835
 - Tue, 28 Mar 2023 00:56:08 my_model_trainer_classification.py[line:65] INFO Client Index = 7	Epoch: 2	Loss: 0.809674
########### client training time for epoch 3: 2.196746587753296
########### client 13 delay 0.0s
############# client 13   training time: 2.3812007904052734
json string size = 50669392
 - Tue, 28 Mar 2023 00:56:09 grpc_comm_manager.py[line:67] INFO sending message to 172.22.151.37:50000
 - Tue, 28 Mar 2023 00:56:36 grpc_server.py[line:29] INFO client_8 got something from client_0 from ip address 172.22.151.37
 - Tue, 28 Mar 2023 00:56:37 FedProxClientManager.py[line:31] INFO handle_message_receive_model_from_server.
 - Tue, 28 Mar 2023 00:56:37 FedProxClientManager.py[line:61] INFO #######training########### round_id = 4
 - Tue, 28 Mar 2023 00:56:37 my_model_trainer_classification.py[line:65] INFO Client Index = 7	Epoch: 0	Loss: 0.902993
 - Tue, 28 Mar 2023 00:56:38 my_model_trainer_classification.py[line:65] INFO Client Index = 7	Epoch: 1	Loss: 0.711797
 - Tue, 28 Mar 2023 00:56:39 my_model_trainer_classification.py[line:65] INFO Client Index = 7	Epoch: 2	Loss: 0.564708
########### client training time for epoch 3: 2.217409372329712
########### client 248 delay 0.0s
############# client 248   training time: 2.4025206565856934
json string size = 50674570
 - Tue, 28 Mar 2023 00:56:41 grpc_comm_manager.py[line:67] INFO sending message to 172.22.151.37:50000
 - Tue, 28 Mar 2023 00:57:07 grpc_server.py[line:29] INFO client_8 got something from client_0 from ip address 172.22.151.37
 - Tue, 28 Mar 2023 00:57:08 FedProxClientManager.py[line:31] INFO handle_message_receive_model_from_server.
 - Tue, 28 Mar 2023 00:57:08 FedProxClientManager.py[line:61] INFO #######training########### round_id = 5
 - Tue, 28 Mar 2023 00:57:09 my_model_trainer_classification.py[line:65] INFO Client Index = 7	Epoch: 0	Loss: 1.187820
 - Tue, 28 Mar 2023 00:57:10 my_model_trainer_classification.py[line:65] INFO Client Index = 7	Epoch: 1	Loss: 0.903678
 - Tue, 28 Mar 2023 00:57:11 my_model_trainer_classification.py[line:65] INFO Client Index = 7	Epoch: 2	Loss: 0.730291
########### client training time for epoch 3: 2.315580129623413
########### client 202 delay 0.0s
############# client 202   training time: 2.4999401569366455
json string size = 50158949
 - Tue, 28 Mar 2023 00:57:12 grpc_comm_manager.py[line:67] INFO sending message to 172.22.151.37:50000
 - Tue, 28 Mar 2023 00:57:39 grpc_server.py[line:29] INFO client_8 got something from client_0 from ip address 172.22.151.37
 - Tue, 28 Mar 2023 00:57:39 FedProxClientManager.py[line:31] INFO handle_message_receive_model_from_server.
 - Tue, 28 Mar 2023 00:57:39 FedProxClientManager.py[line:61] INFO #######training########### round_id = 6
 - Tue, 28 Mar 2023 00:57:40 my_model_trainer_classification.py[line:65] INFO Client Index = 7	Epoch: 0	Loss: 0.732871
 - Tue, 28 Mar 2023 00:57:41 my_model_trainer_classification.py[line:65] INFO Client Index = 7	Epoch: 1	Loss: 0.638684
 - Tue, 28 Mar 2023 00:57:42 my_model_trainer_classification.py[line:65] INFO Client Index = 7	Epoch: 2	Loss: 0.536621
########### client training time for epoch 3: 2.334789514541626
########### client 233 delay 0.0s
############# client 233   training time: 2.51932692527771
json string size = 50355525
 - Tue, 28 Mar 2023 00:57:44 grpc_comm_manager.py[line:67] INFO sending message to 172.22.151.37:50000
 - Tue, 28 Mar 2023 00:58:09 grpc_server.py[line:29] INFO client_8 got something from client_0 from ip address 172.22.151.37
 - Tue, 28 Mar 2023 00:58:10 FedProxClientManager.py[line:31] INFO handle_message_receive_model_from_server.
 - Tue, 28 Mar 2023 00:58:10 FedProxClientManager.py[line:61] INFO #######training########### round_id = 7
 - Tue, 28 Mar 2023 00:58:11 my_model_trainer_classification.py[line:65] INFO Client Index = 7	Epoch: 0	Loss: 1.439844
 - Tue, 28 Mar 2023 00:58:12 my_model_trainer_classification.py[line:65] INFO Client Index = 7	Epoch: 1	Loss: 0.987744
 - Tue, 28 Mar 2023 00:58:13 my_model_trainer_classification.py[line:65] INFO Client Index = 7	Epoch: 2	Loss: 0.777819
########### client training time for epoch 3: 2.3208508491516113
########### client 272 delay 0.0s
############# client 272   training time: 2.53192400932312
json string size = 50133347
 - Tue, 28 Mar 2023 00:58:15 grpc_comm_manager.py[line:67] INFO sending message to 172.22.151.37:50000
 - Tue, 28 Mar 2023 00:58:40 grpc_server.py[line:29] INFO client_8 got something from client_0 from ip address 172.22.151.37
 - Tue, 28 Mar 2023 00:58:41 FedProxClientManager.py[line:31] INFO handle_message_receive_model_from_server.
 - Tue, 28 Mar 2023 00:58:41 FedProxClientManager.py[line:61] INFO #######training########### round_id = 8
 - Tue, 28 Mar 2023 00:58:42 my_model_trainer_classification.py[line:65] INFO Client Index = 7	Epoch: 0	Loss: 0.876010
 - Tue, 28 Mar 2023 00:58:43 my_model_trainer_classification.py[line:65] INFO Client Index = 7	Epoch: 1	Loss: 0.609007
 - Tue, 28 Mar 2023 00:58:43 my_model_trainer_classification.py[line:65] INFO Client Index = 7	Epoch: 2	Loss: 0.466831
########### client training time for epoch 3: 2.3354275226593018
########### client 249 delay 0.0s
############# client 249   training time: 2.521186590194702
json string size = 50489359
 - Tue, 28 Mar 2023 00:58:45 grpc_comm_manager.py[line:67] INFO sending message to 172.22.151.37:50000
 - Tue, 28 Mar 2023 00:59:12 grpc_server.py[line:29] INFO client_8 got something from client_0 from ip address 172.22.151.37
 - Tue, 28 Mar 2023 00:59:13 FedProxClientManager.py[line:31] INFO handle_message_receive_model_from_server.
 - Tue, 28 Mar 2023 00:59:13 FedProxClientManager.py[line:61] INFO #######training########### round_id = 9
 - Tue, 28 Mar 2023 00:59:14 my_model_trainer_classification.py[line:65] INFO Client Index = 7	Epoch: 0	Loss: 1.147044
 - Tue, 28 Mar 2023 00:59:15 my_model_trainer_classification.py[line:65] INFO Client Index = 7	Epoch: 1	Loss: 0.699083
 - Tue, 28 Mar 2023 00:59:16 my_model_trainer_classification.py[line:65] INFO Client Index = 7	Epoch: 2	Loss: 0.519666
########### client training time for epoch 3: 2.4272546768188477
########### client 231 delay 0.0s
############# client 231   training time: 2.610821008682251
json string size = 49810667
 - Tue, 28 Mar 2023 00:59:18 grpc_comm_manager.py[line:67] INFO sending message to 172.22.151.37:50000
 - Tue, 28 Mar 2023 00:59:45 grpc_server.py[line:29] INFO client_8 got something from client_0 from ip address 172.22.151.37
 - Tue, 28 Mar 2023 00:59:46 FedProxClientManager.py[line:31] INFO handle_message_receive_model_from_server.
 - Tue, 28 Mar 2023 00:59:46 FedProxClientManager.py[line:61] INFO #######training########### round_id = 10
 - Tue, 28 Mar 2023 00:59:47 my_model_trainer_classification.py[line:65] INFO Client Index = 7	Epoch: 0	Loss: 0.804990
 - Tue, 28 Mar 2023 00:59:47 my_model_trainer_classification.py[line:65] INFO Client Index = 7	Epoch: 1	Loss: 0.579483
 - Tue, 28 Mar 2023 00:59:48 my_model_trainer_classification.py[line:65] INFO Client Index = 7	Epoch: 2	Loss: 0.442486
########### client training time for epoch 3: 2.2517645359039307
########### client 4 delay 0.0s
############# client 4   training time: 2.438579797744751
json string size = 50678551
 - Tue, 28 Mar 2023 00:59:50 grpc_comm_manager.py[line:67] INFO sending message to 172.22.151.37:50000
