receiver_id,ip
0,sp23-cs525-1401.cs.illinois.edu
1,sp23-cs525-1402.cs.illinois.edu
2,sp23-cs525-1403.cs.illinois.edu
3,sp23-cs525-1404.cs.illinois.edu
4,sp23-cs525-1405.cs.illinois.edu
5,sp23-cs525-1406.cs.illinois.edu
6,sp23-cs525-1407.cs.illinois.edu
7,sp23-cs525-1408.cs.illinois.edu
8,sp23-cs525-1409.cs.illinois.edu
9,sp23-cs525-1410.cs.illinois.edu